<svg width="116" height="116" viewBox="0 0 116 116" xmlns="http://www.w3.org/2000/svg">
<path d="M76.6749 39.6265H72.458V35.4097C72.4581 34.0843 71.3737 33 70.049 33H39.3256C38.0003 33 36.916 34.0843 36.916 35.4097V73.9638C36.916 75.2891 38.0003 76.3735 39.3257 76.3735H43.5426V80.5903C43.5426 81.9156 44.6264 83 45.9522 83H66.4335C67.7582 83 69.6329 82.2566 70.5974 81.3488L77.3287 75.0127C78.2944 74.1049 79.0835 72.2772 79.0835 70.9519L79.0847 42.0363C79.0846 40.7108 78.0002 39.6265 76.6749 39.6265ZM43.5424 42.0362V74.5662H39.3256C38.9991 74.5662 38.7232 74.2904 38.7232 73.9639V35.4097C38.7232 35.0832 38.9991 34.8073 39.3256 34.8073H70.0491C70.3749 34.8073 70.6514 35.0832 70.6514 35.4097V39.6266H45.952C44.6262 39.6266 43.5424 40.7108 43.5424 42.0362ZM76.0901 73.6969L69.3587 80.0325C69.2208 80.1621 69.0412 80.2892 68.843 80.4102V74.8674C68.843 74.4535 69.0099 74.0812 69.2852 73.8041C69.5629 73.5288 69.9352 73.3614 70.3491 73.3614H76.3762C76.2827 73.4884 76.187 73.6053 76.0901 73.6969ZM77.2761 70.9517C77.2761 71.1306 77.2435 71.3378 77.1942 71.554H70.349C68.5207 71.5576 67.0394 73.039 67.0357 74.8673V81.1196C66.8207 81.1631 66.6134 81.1925 66.4333 81.1925H45.952V81.1926C45.6249 81.1926 45.3497 80.9167 45.3497 80.5902V42.0361C45.3497 41.7097 45.625 41.4338 45.952 41.4338H76.6748C77.0013 41.4338 77.2772 41.7097 77.2772 42.0361L77.2761 70.9517Z"/>
<path d="M70.0492 48.0601H52.5794C52.08 48.0601 51.6758 48.4643 51.6758 48.9637C51.6758 49.4631 52.0801 49.8673 52.5794 49.8673H70.0492C70.548 49.8673 70.9528 49.4631 70.9528 48.9637C70.9528 48.4643 70.548 48.0601 70.0492 48.0601Z"/>
<path d="M70.0492 60.1084H52.5794C52.08 60.1084 51.6758 60.5126 51.6758 61.012C51.6758 61.5114 52.0801 61.9156 52.5794 61.9156H70.0492C70.548 61.9156 70.9528 61.5114 70.9528 61.012C70.9528 60.5125 70.548 60.1084 70.0492 60.1084Z"/>
<path d="M62.2179 66.1326H52.5794C52.08 66.1326 51.6758 66.5368 51.6758 67.0362C51.6758 67.5356 52.08 67.9398 52.5794 67.9398H62.2179C62.7167 67.9398 63.1209 67.5356 63.1209 67.0362C63.1209 66.5368 62.7167 66.1326 62.2179 66.1326Z"/>
<path d="M70.0492 54.0842H52.5794C52.08 54.0842 51.6758 54.4884 51.6758 54.9878C51.6758 55.4873 52.0801 55.8915 52.5794 55.8915H70.0492C70.548 55.8915 70.9528 55.4873 70.9528 54.9878C70.9528 54.4884 70.548 54.0842 70.0492 54.0842Z"/>
</svg>
