<svg width="116" height="116" viewBox="0 0 116 116" xmlns="http://www.w3.org/2000/svg">
<g clip-path="url(#clip0)">
<path d="M80.6787 62.6696C80.5825 62.2648 80.2208 61.9791 79.8047 61.9791C78.5813 61.9791 76.3864 61.3699 74.5302 60.5632V56.6645C74.5302 55.1784 73.3212 53.9693 71.835 53.9693H70.0382V37.7974C70.0382 36.8066 69.2321 36.0005 68.2413 36.0005H41.2889C40.2981 36.0005 39.4921 36.8066 39.4921 37.7974V48.5788H36.7968C35.8061 48.5788 35 49.3849 35 50.3756V76.4297C35 77.9159 36.2091 79.125 37.6952 79.125H66.8771C67.9339 80.1017 69.1863 81.0338 70.6711 81.8814C70.8091 81.9602 70.9628 81.9996 71.1165 81.9996C71.2703 81.9996 71.4239 81.9601 71.562 81.8814C77.7794 78.3321 79.9313 73.303 80.6417 69.7091C81.4096 65.8241 80.7089 62.7967 80.6787 62.6696ZM41.2889 37.7974H68.2413V53.9693H52.6782L51.1723 50.2046C50.7772 49.2169 49.8645 48.5787 48.8469 48.5787H41.2889V37.7974ZM36.7968 76.4297V75.5312H41.4682C41.9644 75.5312 42.3666 75.129 42.3666 74.6328C42.3666 74.1366 41.9644 73.7344 41.4682 73.7344H36.7968V50.3756H48.8469C49.1637 50.3756 49.4052 50.6249 49.504 50.8719L51.2359 55.2014C51.3723 55.5425 51.7027 55.7661 52.0701 55.7661H71.8352C72.3306 55.7661 72.7336 56.1691 72.7336 56.6645V59.6429C72.3353 59.3963 71.9968 59.146 71.7483 58.9002C71.3983 58.5541 70.835 58.5541 70.4849 58.9002C69.0114 60.3573 64.4249 61.979 62.4283 61.979C62.0123 61.979 61.6506 62.2647 61.5543 62.6695C61.5241 62.7966 60.8234 65.8241 61.5914 69.709C62.0303 71.93 63.0205 74.699 65.1797 77.3282H37.6952C37.1999 77.3282 36.7968 76.9251 36.7968 76.4297ZM78.8789 69.3606C77.982 73.8977 75.3717 77.4948 71.1164 80.0596C66.8847 77.5088 64.2792 73.9357 63.3682 69.4319C62.8586 66.9116 63.0426 64.7566 63.1899 63.7289C65.5079 63.4681 69.169 62.1592 71.1165 60.7128C73.0645 62.1595 76.7267 63.4686 79.0447 63.729C79.1915 64.7433 79.3737 66.8574 78.8789 69.3606Z"/>
<path d="M44.5674 41.391H64.9613C65.4575 41.391 65.8597 40.9888 65.8597 40.4926C65.8597 39.9964 65.4575 39.5942 64.9613 39.5942H44.5674C44.0712 39.5942 43.6689 39.9964 43.6689 40.4926C43.6689 40.9888 44.0712 41.391 44.5674 41.391Z"/>
<path d="M65.8597 44.0863C65.8597 43.5901 65.4575 43.1879 64.9613 43.1879H44.5674C44.0712 43.1879 43.6689 43.5901 43.6689 44.0863C43.6689 44.5825 44.0712 44.9847 44.5674 44.9847H64.9613C65.4574 44.9847 65.8597 44.5825 65.8597 44.0863Z"/>
<path d="M64.9616 46.7816H54.7646C54.2684 46.7816 53.8662 47.1838 53.8662 47.68C53.8662 48.1762 54.2684 48.5784 54.7646 48.5784H64.9616C65.4578 48.5784 65.86 48.1762 65.86 47.68C65.86 47.1838 65.4577 46.7816 64.9616 46.7816Z"/>
<path d="M64.9618 50.3752H59.6611C59.1649 50.3752 58.7627 50.7774 58.7627 51.2736C58.7627 51.7698 59.1649 52.172 59.6611 52.172H64.9618C65.458 52.172 65.8602 51.7698 65.8602 51.2736C65.8602 50.7774 65.4579 50.3752 64.9618 50.3752Z"/>
<path d="M74.4719 65.4323C73.752 65.4323 73.0753 65.7127 72.5662 66.2217L70.0866 68.7014L69.6652 68.28C69.1562 67.771 68.4794 67.4907 67.7595 67.4907C67.0396 67.4907 66.3628 67.7711 65.8539 68.28C65.3448 68.7891 65.0645 69.4658 65.0645 70.1857C65.0645 70.9056 65.3448 71.5824 65.8538 72.0914L68.1809 74.4185C68.7063 74.9439 69.3964 75.2065 70.0865 75.2065C70.7766 75.2065 71.4668 74.9438 71.9922 74.4185L76.3776 70.0332C77.4283 68.9824 77.4283 67.2725 76.3776 66.2218C75.8687 65.7127 75.1919 65.4323 74.4719 65.4323ZM75.1071 68.7625L70.7219 73.1478C70.3717 73.498 69.8018 73.4979 69.4516 73.1478L67.1245 70.8207C66.9548 70.6511 66.8615 70.4255 66.8615 70.1856C66.8615 69.9457 66.9549 69.7202 67.1245 69.5505C67.2941 69.3808 67.5197 69.2875 67.7596 69.2875C67.9995 69.2875 68.2251 69.3809 68.3947 69.5505L69.4513 70.6072C69.6198 70.7756 69.8483 70.8703 70.0866 70.8703C70.3249 70.8703 70.5534 70.7756 70.7219 70.6072L73.8368 67.4923C74.0064 67.3226 74.232 67.2292 74.4718 67.2292C74.7118 67.2292 74.9373 67.3227 75.1069 67.4923C75.4573 67.8425 75.4573 68.4123 75.1071 68.7625Z"/>
<path d="M45.5107 73.7343C45.0145 73.7343 44.6123 74.1365 44.6123 74.6328C44.6123 75.129 45.0145 75.5312 45.5107 75.5312H45.5114C46.0076 75.5312 46.4095 75.129 46.4095 74.6328C46.4095 74.1365 46.0069 73.7343 45.5107 73.7343Z"/>
</g>
<defs>
<clipPath id="clip0">
<rect width="46" height="46" fill="white" transform="translate(35 36)"/>
</clipPath>
</defs>
</svg>
